…
fisheries_2
```

```
## # A tibble: 17,692 x 71
##    country commname spgroup spgroupname spcode sciname region unit  X1950
##    <chr>   <chr>      <dbl> <chr>       <chr>  <chr>    <dbl> <chr> <chr>
##  1 Albania Angelsh~      38 Sharks, ra~ 10903~ Squati~     37 Quan~ ...  
##  2 Albania Atlanti~      36 Tunas, bon~ 17501~ Sarda ~     37 Quan~ ...  
##  3 Albania Barracu~      37 Miscellane~ 17710~ Sphyra~     37 Quan~ ...  
##  4 Albania Blue an~      45 Shrimps, p~ 22802~ Ariste~     37 Quan~ ...  
##  5 Albania Blue wh~      32 Cods, hake~ 14804~ Microm~     37 Quan~ ...  
##  6 Albania Bluefish      37 Miscellane~ 17020~ Pomato~     37 Quan~ ...  
##  7 Albania Bogue         33 Miscellane~ 17039~ Boops ~     37 Quan~ ...  
##  8 Albania Caramot~      45 Shrimps, p~ 22801~ Penaeu~     37 Quan~ ...  
##  9 Albania Catshar~      38 Sharks, ra~ 10801~ Scylio~     37 Quan~ ...  
## 10 Albania Common ~      57 Squids, cu~ 32102~ Sepia ~     37 Quan~ ...  
## # ... with 17,682 more rows, and 62 more variables: X1951 <chr>,
## #   X1952 <chr>, X1953 <chr>, X1954 <chr>, X1955 <chr>, X1956 <chr>,
## #   X1957 <chr>, X1958 <chr>, X1959 <chr>, X1960 <chr>, X1961 <chr>,
## #   X1962 <chr>, X1963 <chr>, X1964 <chr>, X1965 <chr>, X1966 <chr>,
## #   X1967 <chr>, X1968 <chr>, X1969 <chr>, X1970 <chr>, X1971 <chr>,
## #   X1972 <chr>, X1973 <chr>, X1974 <chr>, X1975 <chr>, X1976 <chr>,
## #   X1977 <chr>, X1978 <chr>, X1979 <chr>, X1980 <chr>, X1981 <chr>,
## #   X1982 <chr>, X1983 <chr>, X1984 <chr>, X1985 <chr>, X1986 <chr>,
## #   X1987 <chr>, X1988 <chr>, X1989 <chr>, X1990 <chr>, X1991 <chr>,
…
## Tidy data with gather()

5. We need to tidy the data using `gather()`. The code below will not run because it is commented (#) out. I have added a bit of code that will prevent you from needing to type in each year from 1950-2012 but you need to complete the remainder `QQQ` and remove the `#`.

```r
fisheries_tidy <- 
  fisheries_2 %>% 
  gather(num_range('X',1950:2012), key= "year", value= "catch")

fisheries_tidy
```

```
## # A tibble: 1,114,596 x 10
##    country commname spgroup spgroupname spcode sciname region unit  year 
##    <chr>   <chr>      <dbl> <chr>       <chr>  <chr>    <dbl> <chr> <chr>
##  1 Albania Angelsh~      38 Sharks, ra~ 10903~ Squati~     37 Quan~ X1950
##  2 Albania Atlanti~      36 Tunas, bon~ 17501~ Sarda ~     37 Quan~ X1950
##  3 Albania Barracu~      37 Miscellane~ 17710~ Sphyra~     37 Quan~ X1950
##  4 Albania Blue an~      45 Shrimps, p~ 22802~ Ariste~     37 Quan~ X1950
##  5 Albania Blue wh~      32 Cods, hake~ 14804~ Microm~     37 Quan~ X1950
##  6 Albania Bluefish      37 Miscellane~ 17020~ Pomato~     37 Quan~ X1950
##  7 Albania Bogue         33 Miscellane~ 17039~ Boops ~     37 Quan~ X1950
##  8 Albania Caramot~      45 Shrimps, p~ 22801~ Penaeu~     37 Quan~ X1950
##  9 Albania Catshar~      38 Sharks, ra~ 10801~ Scylio~     37 Quan~ X1950
## 10 Albania Common ~      57 Squids, cu~ 32102~ Sepia ~     37 Quan~ X1950
## # ... with 1,114,586 more rows, and 1 more variable: catch <chr>
```
…
```
## Warning in evalq(as.numeric(str_replace(catch, c(" F", "...", "-"),
## replacement = "")), : NAs introduced by coercion
```

```r
fisheries_tidy
```

```
## # A tibble: 1,114,596 x 10
##    country commname spgroup spgroupname spcode sciname region unit   year
##    <chr>   <chr>      <dbl> <chr>       <chr>  <chr>    <dbl> <chr> <dbl>
##  1 Albania Angelsh~      38 Sharks, ra~ 10903~ Squati~     37 Quan~  1950
##  2 Albania Atlanti~      36 Tunas, bon~ 17501~ Sarda ~     37 Quan~  1950
##  3 Albania Barracu~      37 Miscellane~ 17710~ Sphyra~     37 Quan~  1950
##  4 Albania Blue an~      45 Shrimps, p~ 22802~ Ariste~     37 Quan~  1950
##  5 Albania Blue wh~      32 Cods, hake~ 14804~ Microm~     37 Quan~  1950
##  6 Albania Bluefish      37 Miscellane~ 17020~ Pomato~     37 Quan~  1950
##  7 Albania Bogue         33 Miscellane~ 17039~ Boops ~     37 Quan~  1950
##  8 Albania Caramot~      45 Shrimps, p~ 22801~ Penaeu~     37 Quan~  1950
##  9 Albania Catshar~      38 Sharks, ra~ 10801~ Scylio~     37 Quan~  1950
## 10 Albania Common ~      57 Squids, cu~ 32102~ Sepia ~     37 Quan~  1950
## # ... with 1,114,586 more rows, and 1 more variable: catch <dbl>
```
…
9. You are a fisheries scientist studying cephalopod catch during 2008-2012. Identify the top five consumers (by country) of cephalopods (don't worry about species for now). Restrict the data frame only to our variables of interest.

##Restrict year to 2008-2012

```r
year_narrow <- fisheries_tidy %>%
  select(country, year, spgroupname,commname, catch) %>%
  filter(year > 2008 & year < 2012 | year == 2008 |year == 2012)

year_narrow
```

```
## # A tibble: 88,460 x 5
##    country  year spgroupname                 commname                 catch
##    <chr>   <dbl> <chr>                       <chr>                    <dbl>
##  1 Albania  2008 Sharks, rays, chimaeras     Angelsharks, sand devil~    23
##  2 Albania  2008 Tunas, bonitos, billfishes  Atlantic bonito             27
##  3 Albania  2008 Miscellaneous pelagic fish~ Barracudas nei              NA
##  4 Albania  2008 Shrimps, prawns             Blue and red shrimp         NA
##  5 Albania  2008 Cods, hakes, haddocks       Blue whiting(=Poutassou)    NA
##  6 Albania  2008 Miscellaneous pelagic fish~ Bluefish                    NA
##  7 Albania  2008 Miscellaneous coastal fish~ Bogue                       NA
##  8 Albania  2008 Shrimps, prawns             Caramote prawn              23
##  9 Albania  2008 Sharks, rays, chimaeras     Catsharks, nursehounds ~    NA
## 10 Albania  2008 Squids, cuttlefishes, octo~ Common cuttlefish           62
## # ... with 88,450 more rows
```

##Who consumes cephalopods?

```r
cephalopod_consumption <- year_narrow %>%
  filter(spgroupname == "Squids, cuttlefishes, octopuses") %>%
  filter(catch >= 1)
  
cephalopod_consumption
```

```
## # A tibble: 1,480 x 5
##    country        year spgroupname                  commname          catch
##    <chr>         <dbl> <chr>                        <chr>             <dbl>
##  1 Albania        2008 Squids, cuttlefishes, octop~ Common cuttlefish    62
##  2 Albania        2008 Squids, cuttlefishes, octop~ Common octopus       82
##  3 Albania        2008 Squids, cuttlefishes, octop~ Common squids nei   107
##  4 Algeria        2008 Squids, cuttlefishes, octop~ Cephalopods nei      29
##  5 Algeria        2008 Squids, cuttlefishes, octop~ Common cuttlefish   449
##  6 Algeria        2008 Squids, cuttlefishes, octop~ Common squids nei   236
##  7 Algeria        2008 Squids, cuttlefishes, octop~ Octopuses, etc. ~   895
##  8 American Sam~  2008 Squids, cuttlefishes, octop~ Octopuses, etc. ~     1
##  9 Angola         2008 Squids, cuttlefishes, octop~ Octopuses, etc. ~     6
## 10 Angola         2008 Squids, cuttlefishes, octop~ Various squids n~    65
## # ... with 1,470 more rows
```
…
```r
#Calculates based on the mean and max catch of cephalopods per country out of all their years

top_consumers <- cephalopod_consumption %>%
  group_by(country) %>%
  summarize(max_Catch = max(catch),
            mean_Catch = mean(catch)) %>%
  arrange(desc(mean_Catch)) #arranged by the average cephalopod catch

top_consumers
```

```
## # A tibble: 122 x 3
##    country                  max_Catch mean_Catch
##    <chr>                        <dbl>      <dbl>
##  1 Viet Nam                    260000    260000 
##  2 China                       462981    103090.
##  3 Peru                        533414     90453.
##  4 Chile                       200428     39719.
##  5 Japan                       242262     37861.
##  6 India                        82456     30827 
##  7 Argentina                    94984     21280.
##  8 Taiwan Province of China    208641     17936.
##  9 Indonesia                   116991     17373.
## 10 Philippines                  57223     12749.
## # ... with 112 more rows
```
…
