…
6. Which cities in California have the highest number of colleges?

## Los Angeles


```r
CA_colleges %>% 
  select(CITY, INSTNM) %>% 
  count(CITY) %>% 
  arrange(desc(n))
```

```
## # A tibble: 161 x 2
##    CITY              n
##    <chr>         <int>
##  1 Los Angeles      24
##  2 San Diego        18
##  3 San Francisco    15
##  4 Sacramento       10
##  5 Berkeley          9
##  6 Oakland           9
##  7 Claremont         7
##  8 Pasadena          6
##  9 Fresno            5
## 10 Irvine            5
## # ... with 151 more rows
```


7. The column `COSTT4_A` is the annual cost of each institution. Which city has the highest cost?

##Claremont

```r
CA_colleges %>% 
  group_by(CITY, INSTNM) %>% 
  summarise(max_cost = max(COSTT4_A)) %>% 
  arrange(desc(max_cost))
```

```
## # A tibble: 341 x 3
## # Groups:   CITY [161]
##    CITY          INSTNM                                        max_cost
##    <chr>         <chr>                                            <dbl>
##  1 Claremont     Harvey Mudd College                              69355
##  2 Los Angeles   Southern California Institute of Architecture    67225
##  3 Los Angeles   University of Southern California                67064
##  4 Los Angeles   Occidental College                               67046
##  5 Claremont     Claremont McKenna College                        66325
##  6 Malibu        Pepperdine University                            66152
##  7 Claremont     Scripps College                                  66060
##  8 Claremont     Pitzer College                                   65880
##  9 San Francisco San Francisco Art Institute                      65453
## 10 Claremont     Pomona College                                   64870
## # ... with 331 more rows
```
…
